^C:\UCLA\CS174A\PROJECT4\PROJECT4\PROJECT4\SRC\CAMERA.CPP
/c /ZI /nologo /W3 /WX- /Od /Oy- /D _MBCS /Gm /EHsc /RTC1 /MDd /GS /fp:precise /Zc:wchar_t /Zc:forScope /Fo"Debug\\" /Fd"Debug\vc100.pdb" /Gd /TP /analyze- /errorReport:prompt C:\UCLA\CS174A\PROJECT4\PROJECT4\PROJECT4\SRC\CAMERA.CPP
^C:\UCLA\CS174A\PROJECT4\PROJECT4\PROJECT4\SRC\INITSHADER.CPP
/c /ZI /nologo /W3 /WX- /Od /Oy- /D _MBCS /Gm /EHsc /RTC1 /MDd /GS /fp:precise /Zc:wchar_t /Zc:forScope /Fo"Debug\\" /Fd"Debug\vc100.pdb" /Gd /TP /analyze- /errorReport:prompt C:\UCLA\CS174A\PROJECT4\PROJECT4\PROJECT4\SRC\INITSHADER.CPP
^C:\UCLA\CS174A\PROJECT4\PROJECT4\PROJECT4\SRC\INPUT.CPP
/c /ZI /nologo /W3 /WX- /Od /Oy- /D _MBCS /Gm /EHsc /RTC1 /MDd /GS /fp:precise /Zc:wchar_t /Zc:forScope /Fo"Debug\\" /Fd"Debug\vc100.pdb" /Gd /TP /analyze- /errorReport:prompt C:\UCLA\CS174A\PROJECT4\PROJECT4\PROJECT4\SRC\INPUT.CPP
^C:\UCLA\CS174A\PROJECT4\PROJECT4\PROJECT4\SRC\MAIN.CPP
/c /ZI /nologo /W3 /WX- /Od /Oy- /D _MBCS /Gm /EHsc /RTC1 /MDd /GS /fp:precise /Zc:wchar_t /Zc:forScope /Fo"Debug\\" /Fd"Debug\vc100.pdb" /Gd /TP /analyze- /errorReport:prompt C:\UCLA\CS174A\PROJECT4\PROJECT4\PROJECT4\SRC\MAIN.CPP
^C:\UCLA\CS174A\PROJECT4\PROJECT4\PROJECT4\SRC\OLDMAIN.CPP
/c /ZI /nologo /W3 /WX- /Od /Oy- /D _MBCS /Gm /EHsc /RTC1 /MDd /GS /fp:precise /Zc:wchar_t /Zc:forScope /Fo"Debug\\" /Fd"Debug\vc100.pdb" /Gd /TP /analyze- /errorReport:prompt C:\UCLA\CS174A\PROJECT4\PROJECT4\PROJECT4\SRC\OLDMAIN.CPP
^C:\UCLA\CS174A\PROJECT4\PROJECT4\PROJECT4\SRC\QUATERNION.CPP
/c /ZI /nologo /W3 /WX- /Od /Oy- /D _MBCS /Gm /EHsc /RTC1 /MDd /GS /fp:precise /Zc:wchar_t /Zc:forScope /Fo"Debug\\" /Fd"Debug\vc100.pdb" /Gd /TP /analyze- /errorReport:prompt C:\UCLA\CS174A\PROJECT4\PROJECT4\PROJECT4\SRC\QUATERNION.CPP
^C:\UCLA\CS174A\PROJECT4\PROJECT4\PROJECT4\SRC\SHAPES.CPP
/c /ZI /nologo /W3 /WX- /Od /Oy- /D _MBCS /Gm /EHsc /RTC1 /MDd /GS /fp:precise /Zc:wchar_t /Zc:forScope /Fo"Debug\\" /Fd"Debug\vc100.pdb" /Gd /TP /analyze- /errorReport:prompt C:\UCLA\CS174A\PROJECT4\PROJECT4\PROJECT4\SRC\SHAPES.CPP
^C:\UCLA\CS174A\PROJECT4\PROJECT4\PROJECT4\SRC\TIMER.CPP
/c /ZI /nologo /W3 /WX- /Od /Oy- /D _MBCS /Gm /EHsc /RTC1 /MDd /GS /fp:precise /Zc:wchar_t /Zc:forScope /Fo"Debug\\" /Fd"Debug\vc100.pdb" /Gd /TP /analyze- /errorReport:prompt C:\UCLA\CS174A\PROJECT4\PROJECT4\PROJECT4\SRC\TIMER.CPP
