^C:\UCLA\CS174A\PROJECT4\PROJECT4\PROJECT4\SRC\INITSHADER.CPP|C:\UCLA\CS174A\PROJECT4\PROJECT4\PROJECT4\SRC\MAIN.CPP
C:\UCLA\CS174A\PROJECT4\PROJECT4\PROJECT4\RELEASE\MAIN.OBJ
C:\UCLA\CS174A\PROJECT4\PROJECT4\PROJECT4\RELEASE\INITSHADER.OBJ
^C:\UCLA\CS174A\PROJECT4\PROJECT4\PROJECT4\SRC\INITSHADER.CPP
C:\UCLA\CS174A\PROJECT4\PROJECT4\PROJECT4\RELEASE\VC100.PDB
^C:\UCLA\CS174A\PROJECT4\PROJECT4\PROJECT4\SRC\MAIN.CPP
C:\UCLA\CS174A\PROJECT4\PROJECT4\PROJECT4\RELEASE\VC100.PDB
