^C:\UCLA\CS174A\PROJECT4\PROJECT4\PROJECT4\RELEASE\INITSHADER.OBJ|C:\UCLA\CS174A\PROJECT4\PROJECT4\PROJECT4\RELEASE\MAIN.OBJ
C:\UCLA\CS174A\PROJECT4\PROJECT4\RELEASE\PROJECT4.EXE
C:\UCLA\CS174A\PROJECT4\PROJECT4\PROJECT4\RELEASE\PROJECT4.EXE.INTERMEDIATE.MANIFEST
C:\UCLA\CS174A\PROJECT4\PROJECT4\RELEASE\PROJECT4.PDB
